{
	"nodeportnumber":5000,"androidhome":"","functionalPreviewPort":8888,"intellisensePort":5230,"enableAppWizards":true,"enableAppGroups":true , "enableToolTips" : true ,
		"monitorAssets" : true, "enableMetrics" : true, "enableIQChat" : null, "addonServerPort" : 9095, "autonomousIQServerPort" : 4210
}