{
    "AS_Button_e9e1eaeae8e44e60b43a76f92e83e758": {
        "id": "AS_Button_e9e1eaeae8e44e60b43a76f92e83e758",
        "type": "ACTION_SEQUENCE",
        "params": [{
            "datatype": "collection",
            "name": "eventobject"
        }],
        "language": "js",
        "actions": [{
            "id": "NAVIGATE_TO_FORM__ide_onClick_ed7a18969d4140b78ae5bf9bed40c84b",
            "type": "NAVIGATE_TO_FORM",
            "formKUID": "c3dd7027a8b147af935bac5f86a0cd64",
            "mappings": {},
            "mappingsOrder": [],
            "enableMappingEditor": true,
            "package": "",
            "isCustomInput": false
        }]
    }
}