{
    "DNDConfig": null,
    "_height_": {
        "type": "string",
        "value": "90dp"
    },
    "_left_": {
        "type": "string",
        "value": "10%"
    },
    "_margin_": [
        0,
        0,
        0,
        0
    ],
    "_orientation_": 6,
    "_padding_": [
        0,
        0,
        0,
        0
    ],
    "_percent_": true,
    "_skin_": "s31d880c48db44e1a80c0e36ad7fa24c",
    "_top_": {
        "type": "string",
        "value": "0"
    },
    "_width_": {
        "type": "string",
        "value": "80%"
    },
    "allboxes": [],
    "autogrowmode": 0,
    "canUpdateUI": true,
    "children": [
        "CopyFlexContainer0f57aa8e534f443",
        "CopyLabel0f1fd9b325b554b"
    ],
    "clipbounds": true,
    "containerweight": 100,
    "desktopweb": {
        "psp": {
            "hoverSkin": "s042ee3bffe64dc2a28a7edf3239abc1"
        }
    },
    "disabledSkins": {},
    "enablescrolling": true,
    "id": "CopyFlexContainer0a0214cca58f544",
    "info": null,
    "iscustomlayout": false,
    "isvisible": true,
    "kuid": "i6cea8cb6b1142a8bd4853a4556f42b0",
    "layouttype": 3,
    "name": "kony.ui.FlexContainer",
    "parent": "rightbar",
    "pf": "Dashboard",
    "retaincontentalignment": false,
    "retainflexpositionproperties": false,
    "retainflowhorizontalalignment": false,
    "snapgridsize": 10,
    "snaptogrid": true,
    "wType": "FlexContainer",
    "widgetalignment": 1
}