{
    "DNDConfig": null,
    "_height_": {
        "type": "string",
        "value": "35%"
    },
    "_left_": {
        "type": "string",
        "value": "0"
    },
    "_margin_": [
        0,
        0,
        0,
        0
    ],
    "_orientation_": 6,
    "_padding_": [
        0,
        0,
        0,
        0
    ],
    "_percent_": true,
    "_skin_": "s8ec60bc9ccf42679cb7eeccd26bb139",
    "_top_": {
        "type": "string",
        "value": "65%"
    },
    "_width_": {
        "type": "string",
        "value": "100%"
    },
    "allboxes": [],
    "autogrowmode": 0,
    "canUpdateUI": true,
    "children": [
        "CopyLabel0f0a0d8b3ec2f44",
        "CopyLabel0h918d7f7785746",
        "CopyButton0c88a330d76684a",
        "CopyImage0f633540a807d4e"
    ],
    "clipbounds": true,
    "containerweight": 100,
    "enablescrolling": true,
    "id": "CopyFlexContainer0jb7067bc3c494d",
    "info": null,
    "iscustomlayout": false,
    "isvisible": true,
    "kuid": "i3d90bfa441d4f4280c1d68fbf6e8d68",
    "layouttype": 4,
    "name": "kony.ui.FlexContainer",
    "parent": "CopyFlexContainer0d62ac6ee86e44b",
    "pf": "Dashboard",
    "retaincontentalignment": false,
    "retainflexpositionproperties": false,
    "retainflowhorizontalalignment": false,
    "snapgridsize": 10,
    "snaptogrid": true,
    "wType": "FlexContainer",
    "widgetalignment": 1
}