{
    "DNDConfig": null,
    "_height_": {
        "type": "string",
        "value": "70dp"
    },
    "_left_": {
        "type": "string",
        "value": "10%"
    },
    "_margin_": [
        0,
        0,
        0,
        0
    ],
    "_orientation_": 6,
    "_padding_": [
        0,
        0,
        0,
        0
    ],
    "_percent_": true,
    "_skin_": "sea23d7956764a27b1848b9699878436",
    "_top_": {
        "type": "string",
        "value": "0"
    },
    "_width_": {
        "type": "string",
        "value": "80%"
    },
    "allboxes": [],
    "autogrowmode": 0,
    "canUpdateUI": true,
    "children": [
        "FlexContainer0b9be0f5478a143",
        "Label0ha45625da29e46"
    ],
    "clipbounds": true,
    "containerweight": 100,
    "desktopweb": {
        "psp": {
            "hoverSkin": "sabce04a7397493690f85418e840a1b1"
        }
    },
    "disabledSkins": {},
    "enablescrolling": true,
    "id": "FlexContainer0d218f0073dd844",
    "info": null,
    "iscustomlayout": false,
    "isvisible": true,
    "kuid": "f16dfb89aa41427dac80add0c7d267d6",
    "layouttype": 3,
    "name": "kony.ui.FlexContainer",
    "parent": "rightbar",
    "pf": "Dashboard",
    "retaincontentalignment": false,
    "retainflexpositionproperties": false,
    "retainflowhorizontalalignment": false,
    "snapgridsize": 10,
    "snaptogrid": true,
    "wType": "FlexContainer",
    "widgetalignment": 1
}