{
    "@class": "com.kony.gen.viz.model.component.KVizImage2",
    "DNDConfig": null,
    "_base64_": null,
    "_height_": {
        "type": "string",
        "value": "100%"
    },
    "_left_": {
        "type": "string",
        "value": "0"
    },
    "_margin_": [
        0,
        0,
        0,
        0
    ],
    "_padding_": [
        0,
        0,
        0,
        0
    ],
    "_skin_": "sed61c8525f4458099e551c3e3ad0101",
    "_src_": "syed.jpg",
    "_top_": {
        "type": "string",
        "value": "-3dp"
    },
    "_width_": {
        "type": "string",
        "value": "100%"
    },
    "canUpdateUI": true,
    "containerweight": 100,
    "id": "Image0e4b02ea8264e4d",
    "imagescalemode": 0,
    "info": null,
    "iscustomlayout": false,
    "isvisible": true,
    "kuid": "j3629db7ed9d401db4cf7b3e51e741b7",
    "name": "kony.ui.Image2",
    "parent": "FlexContainer0f076a40bee1d43",
    "pf": "Dashboard",
    "retaincontentalignment": false,
    "retainflexpositionproperties": false,
    "srcType": 1,
    "tooltip": "ghanta",
    "wType": "Image",
    "widgetalignment": 5
}