{
    "@class": "com.kony.gen.viz.model.component.KVizImage2",
    "DNDConfig": null,
    "_base64_": null,
    "_height_": {
        "type": "string",
        "value": "20%"
    },
    "_left_": {
        "type": "string",
        "value": "7dp"
    },
    "_margin_": [
        0,
        0,
        0,
        0
    ],
    "_padding_": [
        0,
        0,
        0,
        0
    ],
    "_skin_": "sed61c8525f4458099e551c3e3ad0101",
    "_src_": "frame__11_.png",
    "_top_": {
        "type": "string",
        "value": "-30dp"
    },
    "_width_": {
        "type": "string",
        "value": "20%"
    },
    "canUpdateUI": true,
    "containerweight": 100,
    "id": "Image0d5fdcb71470740",
    "imagescalemode": 1,
    "info": null,
    "iscustomlayout": false,
    "isvisible": true,
    "kuid": "acb257ab897e4aa39ee36cc656b6c3b9",
    "name": "kony.ui.Image2",
    "parent": "FlexContainer0c52d3aab1f9048",
    "pf": "Dashboard",
    "responsiveData": {
        "b3": {
            "height": {
                "type": "string",
                "value": "15%"
            },
            "left": {
                "type": "string",
                "value": "12dp"
            },
            "top": {
                "type": "string",
                "value": "-29dp"
            },
            "width": {
                "type": "string",
                "value": "15%"
            }
        }
    },
    "retaincontentalignment": false,
    "retainflexpositionproperties": false,
    "srcType": 1,
    "wType": "Image",
    "widgetalignment": 5
}