{
    "DNDConfig": null,
    "_height_": {
        "type": "ref",
        "value": "preferred"
    },
    "_left_": {
        "type": "string",
        "value": "0"
    },
    "_margin_": [
        0,
        0,
        0,
        0
    ],
    "_orientation_": 6,
    "_padding_": [
        0,
        0,
        0,
        0
    ],
    "_percent_": true,
    "_skin_": "s8ec60bc9ccf42679cb7eeccd26bb139",
    "_top_": {
        "type": "string",
        "value": "80dp"
    },
    "_width_": {
        "type": "string",
        "value": "20%"
    },
    "allboxes": [],
    "autogrowmode": 1,
    "canUpdateUI": true,
    "children": [
        "FlexContainer0c356654028714b",
        "CopyFlexContainer0e22ba468052c43",
        "CopyFlexContainer0df3a47b6c2284d",
        "CopyFlexContainer0a5a212f26bfb48",
        "CopyFlexContainer0b529ef6f72eb43",
        "FlexContainer0c6594c57690a4f",
        "CopyFlexContainer0fc05a1796a6d4f",
        "CopyFlexContainer0c4557edfcfa44d",
        "CopyFlexContainer0h6513135e50642"
    ],
    "clipbounds": true,
    "containerweight": 100,
    "enablescrolling": true,
    "id": "leftbar",
    "info": null,
    "iscustomlayout": false,
    "isvisible": true,
    "kuid": "acc9107c664b4f32a6a4e04fcabe0499",
    "layouttype": 4,
    "name": "kony.ui.FlexContainer",
    "parent": "Dashboard",
    "pf": "Dashboard",
    "responsiveData": {
        "b1": {},
        "b2": {
            "isVisible": false
        },
        "b3": {
            "isVisible": false
        }
    },
    "retaincontentalignment": false,
    "retainflexpositionproperties": false,
    "retainflowhorizontalalignment": false,
    "snapgridsize": 10,
    "snaptogrid": true,
    "wType": "FlexContainer",
    "widgetalignment": 1,
    "zindex": 2
}