{
    "@class": "com.kony.gen.viz.model.component.KVizButton",
    "DNDConfig": null,
    "_bottom_": {
        "type": "number",
        "value": ""
    },
    "_height_": {
        "type": "string",
        "value": "60dp"
    },
    "_left_": {
        "type": "string",
        "value": "20%"
    },
    "_margin_": [
        6,
        6,
        6,
        6
    ],
    "_padding_": [
        0,
        0,
        0,
        0
    ],
    "_skin_": "s525fb7c99a0482ca5bdd10e8b708c35",
    "_text_": "Create New Account",
    "_top_": {
        "type": "string",
        "value": "3%"
    },
    "_width_": {
        "type": "string",
        "value": "60%"
    },
    "canUpdateUI": true,
    "centerx": {
        "type": "string",
        "value": ""
    },
    "containerweight": 100,
    "contentalignment": 5,
    "displaytext": true,
    "focusskin": "s210abbf55c54342873ff2be387f23a2",
    "id": "Button0bb602a0905b74a",
    "ide_onClick": "AS_Button_g264f46ce4034282878558d2097c3301",
    "info": null,
    "iscustomlayout": false,
    "isvisible": true,
    "kuid": "cc512404a69640eba3003249c8dcc998",
    "name": "kony.ui.Button",
    "parent": "loginbox",
    "pf": "loginpage",
    "responsiveData": {
        "b1": {
            "height": {
                "type": "string",
                "value": "50dp"
            },
            "skin": "sb88f8aa78a04a8b93bbcbd16f7fa7a6",
            "text": "Create New Account"
        },
        "b2": {
            "bottom": {
                "type": "string",
                "value": ""
            },
            "height": {
                "type": "string",
                "value": "65dp"
            },
            "skin": "s8ab88adabb040c4abf3475686188cc5",
            "text": "Create New Account"
        }
    },
    "retaincontentalignment": false,
    "retainflexpositionproperties": false,
    "wType": "Button"
}