{
    "@class": "com.kony.gen.viz.model.component.KVizImage2",
    "DNDConfig": null,
    "_base64_": null,
    "_height_": {
        "type": "string",
        "value": "80%"
    },
    "_left_": {
        "type": "string",
        "value": "0"
    },
    "_margin_": [
        0,
        0,
        0,
        0
    ],
    "_padding_": [
        0,
        0,
        0,
        0
    ],
    "_skin_": "sed61c8525f4458099e551c3e3ad0101",
    "_src_": "imagedrag.png",
    "_top_": {
        "type": "string",
        "value": "0"
    },
    "_width_": {
        "type": "string",
        "value": "100%"
    },
    "canUpdateUI": true,
    "centerx": {
        "type": "number",
        "value": ""
    },
    "containerweight": 100,
    "id": "Image0edb0dc3fe0cb41",
    "imagescalemode": 0,
    "info": null,
    "iscustomlayout": false,
    "isvisible": true,
    "kuid": "fde655b4695c4d5ab6de3676e5d2667c",
    "maxwidth": {
        "type": "number",
        "value": ""
    },
    "name": "kony.ui.Image2",
    "parent": "FlexContainer0b54c845fe3c443",
    "pf": "loginpage",
    "responsiveData": {
        "b1": {
            "height": {
                "type": "string",
                "value": "170dp"
            },
            "maxWidth": {
                "type": "string",
                "value": ""
            },
            "src": "syed.jpg"
        },
        "b2": {
            "src": "syed.jpg",
            "width": {
                "type": "string",
                "value": "100%"
            }
        },
        "b3": {
            "centerX": {
                "type": "string",
                "value": "50%"
            },
            "src": "syed.jpg",
            "width": {
                "type": "string",
                "value": "200px"
            }
        }
    },
    "retaincontentalignment": false,
    "retainflexpositionproperties": false,
    "srcType": 1,
    "wType": "Image",
    "widgetalignment": 5
}