{
    "desktopweb": {
        "formslist": {
            "mvcFormObjects": [
                "Dashboard",
                "Form1",
                "loginpage"
            ],
            "nonmvcFormObjects": []
        },
        "templatesList": {
            "mvcTemplateObjects": [
                "SampleRowTemplate",
                "SampleSectionHeaderTemplate"
            ],
            "nonmvcTemplateObjects": []
        }
    }
}