{
  "android": {},
  "androidwearos": {
    "font_name": "default"
  },
  "background_color": "f0f2f5ff",
  "bg_type": "one",
  "border_color": "000000ff",
  "border_style": "plain",
  "border_type": 0,
  "border_width": 0,
  "bottom_left_border_color": "ffffff00",
  "bottom_left_border_radius": "20",
  "bottom_left_border_style": "rc",
  "bottom_left_border_width": "1",
  "bottom_right_border_color": "ffffff00",
  "bottom_right_border_radius": "20",
  "bottom_right_border_style": "rc",
  "bottom_right_border_width": "1",
  "desktopweb": {},
  "ipad": {},
  "iphone": {},
  "isDefaultSkin": false,
  "kiosk": {},
  "kuid": "s0e643b0e97e45aa890392b64e0e8a15",
  "spaan": {},
  "spaandroidtablet": {},
  "spaip": {},
  "spaipad": {},
  "spawindowstablet": {},
  "spawinphone8": {},
  "tabrcandroid": {},
  "top_left_border_color": "ffffff00",
  "top_left_border_radius": "20",
  "top_left_border_style": "rc",
  "top_left_border_width": "1",
  "top_right_border_color": "ffffff00",
  "top_right_border_radius": "20",
  "top_right_border_style": "rc",
  "top_right_border_width": "1",
  "wType": "FlexContainer",
  "watchos": {
    "font_name": "System"
  },
  "windows8": {},
  "winphone8": {}
}